…
```
## Parsed with column specification:
## cols(
##   steps = col_double(),
##   date = col_date(format = ""),
##   interval = col_double()
## )
```

```r
print(dataset)
```

```
## # A tibble: 17,568 x 3
##    steps date       interval
##    <dbl> <date>        <dbl>
##  1    NA 2012-10-01        0
##  2    NA 2012-10-01        5
##  3    NA 2012-10-01       10
##  4    NA 2012-10-01       15
##  5    NA 2012-10-01       20
##  6    NA 2012-10-01       25
##  7    NA 2012-10-01       30
##  8    NA 2012-10-01       35
##  9    NA 2012-10-01       40
## 10    NA 2012-10-01       45
## # … with 17,558 more rows
```
…
```r
print(avg_by_interval)
```

```
## # A tibble: 288 x 2
##    interval avg_steps
##       <dbl>     <dbl>
##  1        0    1.72  
##  2        5    0.340 
##  3       10    0.132 
##  4       15    0.151 
##  5       20    0.0755
##  6       25    2.09  
##  7       30    0.528 
##  8       35    0.868 
##  9       40    0     
## 10       45    1.47  
## # … with 278 more rows
```
…
We can replace these missing values by mean of the same interval. We allready have theses values from avg_by_interval.   
Let's create a new dataset, with a new column named new_steps.  


```r
newdataset <- dataset %>% mutate( new_steps = ifelse(is.na(steps),
                                                     pull(avg_by_interval[interval,2]),
                                                     steps) )

print(newdataset)
```

```
## # A tibble: 17,568 x 4
##    steps date       interval new_steps
##    <dbl> <date>        <dbl>     <dbl>
##  1    NA 2012-10-01        0    0.0755
##  2    NA 2012-10-01        5    1.47  
##  3    NA 2012-10-01       10    0.151 
##  4    NA 2012-10-01       15    0.170 
##  5    NA 2012-10-01       20    0     
##  6    NA 2012-10-01       25    0.132 
##  7    NA 2012-10-01       30    1.55  
##  8    NA 2012-10-01       35    0     
##  9    NA 2012-10-01       40    0.491 
## 10    NA 2012-10-01       45    0.943 
## # … with 17,558 more rows
```
It worked :)

### Sum of steps per day 

Let's create a new group by dataset using the new column instead of the oirginal one with missing values.

```r
sum_by_date <- newdataset %>% group_by(date) %>% summarise(sum_steps=sum(new_steps, na.rm=TRUE))
print(sum_by_date)
```

```
## # A tibble: 61 x 2
##    date       sum_steps
##    <date>         <dbl>
##  1 2012-10-01     1451.
##  2 2012-10-02      126 
##  3 2012-10-03    11352 
##  4 2012-10-04    12116 
##  5 2012-10-05    13294 
##  6 2012-10-06    15420 
##  7 2012-10-07    11015 
##  8 2012-10-08     1451.
##  9 2012-10-09    12811 
## 10 2012-10-10     9900 
## # … with 51 more rows
```
…
new <- newdataset %>% mutate( day = factor( 
                                    case_when( weekdays(date) %in% week_days ~ "Weekday",  
                                               weekdays(date) %in% weekend_days ~ "Weekend") ) ) 
```

And convert it to a factor.


```r
new$day <- as.factor(new$day)
print(new)
```

```
## # A tibble: 17,568 x 5
##    steps date       interval new_steps day    
##    <dbl> <date>        <dbl>     <dbl> <fct>  
##  1    NA 2012-10-01        0    0.0755 Weekday
##  2    NA 2012-10-01        5    1.47   Weekday
##  3    NA 2012-10-01       10    0.151  Weekday
##  4    NA 2012-10-01       15    0.170  Weekday
##  5    NA 2012-10-01       20    0      Weekday
##  6    NA 2012-10-01       25    0.132  Weekday
##  7    NA 2012-10-01       30    1.55   Weekday
##  8    NA 2012-10-01       35    0      Weekday
##  9    NA 2012-10-01       40    0.491  Weekday
## 10    NA 2012-10-01       45    0.943  Weekday
## # … with 17,558 more rows
```
…
```r
print(avg_by_interval)
```

```
## # A tibble: 576 x 3
## # Groups:   interval [288]
##    interval day     avg_steps
##       <dbl> <fct>       <dbl>
##  1        0 Weekday     2.97 
##  2        0 Weekend     1.56 
##  3        5 Weekday     1.11 
##  4        5 Weekend     0    
##  5       10 Weekday     0.700
##  6       10 Weekend     0    
##  7       15 Weekday     0.851
##  8       15 Weekend     0    
##  9       20 Weekday     3.94 
## 10       20 Weekend     0    
## # … with 566 more rows
```
…
